<?xml version="1.0" encoding="UTF-8"?>
<svg width="137px" height="55px" viewBox="0 0 137 55" version="1.1" xmlns="http://www.w3.org/2000/svg" xmlns:xlink="http://www.w3.org/1999/xlink">
    <title>Group</title>
    <g id="Page-1" stroke="none" stroke-width="1" fill="none" fill-rule="evenodd">
        <g id="Group" fill="#00009F" fill-rule="nonzero">
            <path d="M124.1,6.10001 C118.6,6.50001 114.2,11 113.8,16.5 C113.4,23 118.5,28.4 124.9,28.4 C127.2,28.4 130.3,27.2 131.8,24.8 L131.8,28 L136.1,28 L136.1,17.4 C136.1,10.5 130.5,5.60001 124.1,6.10001 Z M131.4,17.5 C131.2,21.2 128,24 124.2,23.5 C121.3,23.1 119,20.8 118.6,17.9 C118.2,14 121.2,10.7 125,10.7 C128.4,10.7 131.2,13.4 131.4,16.8 L131.4,17.5 L131.4,17.5 Z" id="Shape"></path>
            <path d="M100.5,5.99995 C94.5999,6.19995 89.5999,10.6999 89.5999,17.2999 C89.5999,23.2999 94.4999,28.4 100.8,28.4 C105.2,28.4 109.5,25.7999 111.2,21.4999 L106.9,20.1999 C106.1,21.9999 104.2,23.5 102.1,23.9 C99.0998,24.5 96.2999,22.5999 95.1999,20.5999 L111.9,15.9999 C111.3,11.6999 107.5,5.79995 100.5,5.99995 Z M94.1999,16.6999 C94.1999,14.3999 95.5999,11.6999 98.5999,10.5999 C102,9.29995 105,10.9999 106.3,13.3999 L94.1999,16.6999 Z" id="Shape"></path>
            <path d="M63.6999,10.6 L63.6999,6 C59.4999,6 58.0998,8.1 57.3998,9.2 L57.3998,6.7 L52.5999,6.7 L52.5999,16.9 L52.5999,28 L57.4999,28 C57.4999,21.4 57.4999,21.5 57.4999,17.5 C57.4999,12.7 60.3999,10.7 63.6999,10.6 Z" id="Path"></path>
            <polygon id="Path" points="19.6 19.5 5 2.30005 0 2.30005 0 28 5.2 28 5.2 10.8 20 28 24.5 28 24.5 2.30005 19.6 2.30005"></polygon>
            <path d="M86.5999,0 L81.9999,0 L81.9999,8.4 C80.8999,7 77.4999,5.8 74.5999,6.1 C69.0999,6.5 64.6999,11 64.2999,16.5 C63.8999,23 68.9999,28.4 75.3999,28.4 C77.7999,28.4 81.0999,27.3 82.2999,25.2 L82.2999,28.1 L86.5999,28.1 L86.5999,17.4 C86.5999,17.3 86.5999,17.3 86.5999,17.2 C86.5999,17.1 86.5999,17.1 86.5999,17 L86.5999,0 Z M81.7999,17.5 C81.5999,21.2 78.3999,24 74.5999,23.5 C71.6999,23.1 69.3999,20.8 68.9999,17.9 C68.5999,14 71.5999,10.7 75.3999,10.7 C78.7999,10.7 81.5999,13.4 81.7999,16.8 L81.7999,17.5 L81.7999,17.5 Z" id="Shape"></path>
            <path d="M38.5999,6 C32.3999,6 27.3999,11 27.3999,17.2 C27.3999,23.4 32.3999,28.4 38.5999,28.4 C44.7999,28.4 49.6999,23.4 49.6999,17.2 C49.6999,11 44.6999,6 38.5999,6 Z M38.5999,23.6 C35.0999,23.6 32.1999,20.7 32.1999,17.2 C32.1999,13.7 35.0999,10.8 38.5999,10.8 C42.0999,10.8 44.9999,13.7 44.9999,17.2 C44.9999,20.7 42.0999,23.6 38.5999,23.6 Z" id="Shape"></path>
            <polygon id="Path" points="22.9001 43.9 22.9001 46.7 28.2001 46.7 28.2001 49 22.9001 49 22.9001 54 20.3 54 20.3 41.6 28.7001 41.6 28.7001 43.9"></polygon>
            <polygon id="Path" points="34.5999 41.6 37.1999 41.6 37.1999 54 34.5999 54"></polygon>
            <path d="M51.8,54 L54.1,54 L54.1,41.7 L51.5,41.7 L51.5,49.8 C50.8,48.7 50,47.5 49,45.9 L46.2,41.6 L43.5,41.6 L43.5,54 L46,54 L46,45.1 C46.7,46.2 47.5,47.5 48.8,49.4 L51.8,54 Z" id="Path"></path>
            <path d="M67.8998,51.5 L62.6999,51.5 L61.6999,54 L59.0999,54 L63.7999,41.5 L66.8998,41.5 L71.5999,54 L68.7999,54 L67.8998,51.5 Z M67.0999,49.3 L66.9999,48.9 C66.4999,47.4 65.8998,45.8 65.3998,44.3 C64.8998,45.8 64.2999,47.4 63.6999,48.9 L63.4999,49.3 L67.0999,49.3 Z" id="Shape"></path>
            <path d="M84.8,54 L87.1,54 L87.1,41.7 L84.5,41.7 L84.5,49.8 C83.8,48.7 83,47.5 82,45.9 L79.2,41.6 L76.5,41.6 L76.5,54 L79,54 L79,45.1 C79.7,46.2 80.5,47.5 81.8,49.4 L84.8,54 Z" id="Path"></path>
            <path d="M98.7,54.3 C95.1,54.3 92.7,52.1 92.7,47.8 C92.7,43.5 95.1,41.3 98.7,41.3 C100.3,41.3 101.8,41.8 102.7,42.7 L101.3,44.6 C100.8,44.1 99.9999,43.6 98.7999,43.6 C96.2999,43.6 95.3999,45.6 95.3999,47.8 C95.3999,50 96.2999,52 98.7999,52 C99.9999,52 100.8,51.5 101.4,50.9 L103,52.5 C102,53.6 100.5,54.3 98.7,54.3 Z" id="Path"></path>
            <polygon id="Path" points="116.7 51.8 116.7 54 108 54 108 41.6 116.5 41.6 116.5 43.9 110.7 43.9 110.7 46.6 116 46.6 116 48.9 110.7 48.9 110.7 51.8"></polygon>
        </g>
    </g>
</svg>