<svg xmlns="http://www.w3.org/2000/svg" width="155.526" height="155.526" viewBox="0 0 155.526 155.526">
  <path id="Path_61" data-name="Path 61" d="M79.763,2a77.763,77.763,0,1,0,77.763,77.763A77.791,77.791,0,0,0,79.763,2ZM60.322,114.756V44.77l54.434,34.993Z" transform="translate(-2 -2)" fill="#295c81"/>
</svg>
